@startuml 

title 第三正規形

entity "部署" {
    + 部署番号
    ==
    * 部署名
}

entity "部員" {
    # 部署番号 [FK]
    # 社員番号 [FK]
    ==
}

entity "社員" {
    + 社員番号
    ==
    * 社員名
    # 役職コード [FK]
    * 年齢
}

entity "役職" {
    + 役職コード
    ==
    * 役職名
}

部署||--o{部員
社員||--o{部員
役職||--o{社員

@enduml